build/imul-v1-adhoc-test.vcd
$date
  Fri Sep  2 15:16:43 2022
$end
$version
  PyMTL 3 (Mamba)
$end
$timescale
 10ps
$end

$scope module top $end
  $var reg 32 ! s_DOT_out $end
  $var reg 1 " s_DOT_reset $end
  $var reg 32 # s_DOT_in1 $end
  $var reg 32 $ s_DOT_in0 $end
  $var reg 32 % out $end
  $var reg 32 & in1 $end
  $var reg 32 ' in0 $end
  $var reg 1 ( reset $end
  $var reg 1 ) clk $end
$upscope $end
$enddefinitions $end

b0b00000000000000000000000000000000 !
b0b0 "
b0b00000000000000000000000000000000 #
b0b00000000000000000000000000000000 $
b0b00000000000000000000000000000000 %
b0b00000000000000000000000000000000 &
b0b00000000000000000000000000000000 '
b0b0 (
b0b0 )

#0
b0b1 )

b0b1 "
b0b1 (

#50
b0b0 )
#100
b0b1 )


#150
b0b0 )
#200
b0b1 )


#250
b0b0 )
#300
b0b1 )

b0b0 "
b0b00000000000000000000000000000011 #
b0b00000000000000000000000000000010 $
b0b00000000000000000000000000000011 &
b0b00000000000000000000000000000010 '
b0b0 (

#350
b0b0 )
#400
b0b1 )

b0b00000000000000000000000000000110 !
b0b00000000000000000000000000000010 #
b0b00000000000000000000000000010000 $
b0b00000000000000000000000000000110 %
b0b00000000000000000000000000000010 &
b0b00000000000000000000000000010000 '

#450
b0b0 )
#500
b0b1 )

b0b00000000000000000000000000100000 !
b0b00000000000000000000000000100000 %

#550
b0b0 )
#600
b0b1 )


#650
b0b0 )
#700
b0b1 )


#750
b0b0 )
#800
b0b1 )

