build/imul-v3-adhoc-test.vcd
$date
  Fri Sep  2 15:30:05 2022
$end
$version
  PyMTL 3 (Mamba)
$end
$timescale
 10ps
$end

$scope module top $end
  $var reg 1 $ reset $end
  $var reg 1 % clk $end
  $scope module imul $end
    $var reg 1 ) s_DOT_ostream_DOT_val $end
    $var reg 32 * s_DOT_ostream_DOT_msg $end
    $var reg 1 + s_DOT_istream_DOT_rdy $end
    $var reg 1 , s_DOT_ostream_DOT_rdy $end
    $var reg 1 - s_DOT_istream_DOT_val $end
    $var reg 64 . s_DOT_istream_DOT_msg $end
    $var reg 1 / s_DOT_reset $end
    $var reg 1 ! ostream.rdy $end
    $var reg 1 " ostream.val $end
    $var reg 32 # ostream.msg $end
    $var reg 1 & istream.rdy $end
    $var reg 1 ' istream.val $end
    $var reg 64 ( istream.msg $end
    $var reg 1 $ reset $end
    $var reg 1 % clk $end
  $upscope $end
  $scope module sink $end
    $var reg 1 ! istream.rdy $end
    $var reg 1 " istream.val $end
    $var reg 32 # istream.msg $end
    $var reg 1 $ reset $end
    $var reg 1 % clk $end
  $upscope $end
  $scope module src $end
    $var reg 1 & ostream.rdy $end
    $var reg 1 ' ostream.val $end
    $var reg 64 ( ostream.msg $end
    $var reg 1 $ reset $end
    $var reg 1 % clk $end
  $upscope $end
$upscope $end
$enddefinitions $end

b0b0 !
b0b0 "
b0b00000000000000000000000000000000 #
b0b0 $
b0b0 %
b0b0 &
b0b0 '
b0b0000000000000000000000000000000000000000000000000000000000000000 (
b0b0 )
b0b00000000000000000000000000000000 *
b0b0 +
b0b0 ,
b0b0 -
b0b0000000000000000000000000000000000000000000000000000000000000000 .
b0b0 /

#0
b0b1 %

b0b1 $
b0b0000000000000000000000000000000000000000000000000000000000000000 (
b0b0 )
b0b00000000000000000000000000000000 *
b0b0 +
b0b0000000000000000000000000000000000000000000000000000000000000000 .
b0b1 /

#50
b0b0 %
#100
b0b1 %

b0b1 !
b0b1 &
b0b1 +
b0b1 ,

#150
b0b0 %
#200
b0b1 %


#250
b0b0 %
#300
b0b1 %

b0b0 $
b0b0 /

#350
b0b0 %
#400
b0b1 %

b0b1 '
b0b0000000000000000000000000000001000000000000000000000000000000011 (
b0b1 -
b0b0000000000000000000000000000001000000000000000000000000000000011 .

#450
b0b0 %
#500
b0b1 %

b0b1 "
b0b00000000000000000000000000000110 #
b0b0000000000000000000000000001000000000000000000000000000000000010 (
b0b1 )
b0b00000000000000000000000000000110 *
b0b0000000000000000000000000001000000000000000000000000000000000010 .

#550
b0b0 %
#600
b0b1 %

b0b00000000000000000000000000100000 #
b0b0 '
b0b00000000000000000000000000100000 *
b0b0 -

#650
b0b0 %
#700
b0b1 %

b0b0 "
b0b0 )

#750
b0b0 %
#800
b0b1 %


#850
b0b0 %
#900
b0b1 %


#950
b0b0 %
#1000
b0b1 %


#1050
b0b0 %
#1100
b0b1 %


#1150
b0b0 %
#1200
b0b1 %

